EESchema Schematic File Version 2
LIBS:power
LIBS:device
LIBS:transistors
LIBS:conn
LIBS:linear
LIBS:regul
LIBS:74xx
LIBS:cmos4000
LIBS:adc-dac
LIBS:memory
LIBS:xilinx
LIBS:microcontrollers
LIBS:dsp
LIBS:microchip
LIBS:analog_switches
LIBS:motorola
LIBS:texas
LIBS:intel
LIBS:audio
LIBS:interface
LIBS:digital-audio
LIBS:philips
LIBS:display
LIBS:cypress
LIBS:siliconi
LIBS:opto
LIBS:atmel
LIBS:contrib
LIBS:valves
LIBS:switches
LIBS:ArduinoISP_ext-cache
EELAYER 25 0
EELAYER END
$Descr A4 11693 8268
encoding utf-8
Sheet 1 1
Title ""
Date "sam. 04 avril 2015"
Rev ""
Comp ""
Comment1 ""
Comment2 ""
Comment3 ""
Comment4 ""
$EndDescr
Text Label 10300 1650 1    60   ~ 0
RAW
Text Label 8950 1750 0    60   ~ 0
1(Tx)
Text Label 8950 1850 0    60   ~ 0
0(Rx)
Text Label 8950 1950 0    60   ~ 0
Reset
Text Label 10450 1950 0    60   ~ 0
Reset
Text Label 8950 2150 0    60   ~ 0
2
Text Label 8950 2250 0    60   ~ 0
3(**)
Text Label 8950 2350 0    60   ~ 0
4
Text Label 8950 2450 0    60   ~ 0
5(**)
Text Label 8950 2550 0    60   ~ 0
6(**)
Text Label 8950 2650 0    60   ~ 0
7
Text Label 8950 2750 0    60   ~ 0
8
Text Label 8950 2850 0    60   ~ 0
9(**)
Text Label 10450 2850 0    60   ~ 0
10(**/SS)
Text Label 10450 2750 0    60   ~ 0
11(**/MOSI)
Text Label 10450 2650 0    60   ~ 0
12(MISO)
Text Label 10450 2550 0    60   ~ 0
13(SCK)
Text Label 10450 2450 0    60   ~ 0
A0
Text Label 10450 2350 0    60   ~ 0
A1
Text Label 10450 2250 0    60   ~ 0
A2
Text Label 10450 2150 0    60   ~ 0
A3
Text Notes 8550 575  0    60   ~ 0
Shield Arduino Pro Mini \n
Wire Notes Line
	8375 700  9550 700 
Wire Notes Line
	9550 700  9550 525 
$Comp
L CONN_01X12 P1
U 1 1 56D754D1
P 9500 2300
F 0 "P1" H 9500 2950 50  0000 C CNN
F 1 "Digital" V 9600 2300 50  0000 C CNN
F 2 "Socket_Arduino_Pro_Mini:Socket_Strip_Arduino_1x12" H 9500 2300 50  0001 C CNN
F 3 "" H 9500 2300 50  0000 C CNN
	1    9500 2300
	1    0    0    -1  
$EndComp
$Comp
L CONN_01X12 P4
U 1 1 56D755F3
P 10000 2300
F 0 "P4" H 10000 2950 50  0000 C CNN
F 1 "Analog" V 10100 2300 50  0000 C CNN
F 2 "Socket_Arduino_Pro_Mini:Socket_Strip_Arduino_1x12" H 10000 2300 50  0001 C CNN
F 3 "" H 10000 2300 50  0000 C CNN
	1    10000 2300
	-1   0    0    -1  
$EndComp
$Comp
L GND #PWR01
U 1 1 56D756B8
P 9200 2950
F 0 "#PWR01" H 9200 2700 50  0001 C CNN
F 1 "GND" H 9200 2800 50  0000 C CNN
F 2 "" H 9200 2950 50  0000 C CNN
F 3 "" H 9200 2950 50  0000 C CNN
	1    9200 2950
	1    0    0    -1  
$EndComp
Wire Wire Line
	9300 2050 9200 2050
Wire Wire Line
	9200 2050 9200 2950
Wire Wire Line
	9300 1750 8950 1750
Wire Wire Line
	8950 1850 9300 1850
Wire Wire Line
	9300 1950 8950 1950
Wire Wire Line
	8950 2150 9300 2150
Wire Wire Line
	9300 2250 8950 2250
Wire Wire Line
	9300 2350 8950 2350
Wire Wire Line
	8950 2450 9300 2450
Wire Wire Line
	9300 2550 8950 2550
Wire Wire Line
	8950 2650 9300 2650
Wire Wire Line
	9300 2750 8950 2750
Wire Wire Line
	9300 2850 8950 2850
Wire Wire Line
	10300 1650 10300 1750
Wire Wire Line
	10300 1750 10200 1750
Wire Wire Line
	10200 1850 10300 1850
Wire Wire Line
	10300 1850 10300 2950
$Comp
L GND #PWR02
U 1 1 56D75A03
P 10300 2950
F 0 "#PWR02" H 10300 2700 50  0001 C CNN
F 1 "GND" H 10300 2800 50  0000 C CNN
F 2 "" H 10300 2950 50  0000 C CNN
F 3 "" H 10300 2950 50  0000 C CNN
	1    10300 2950
	1    0    0    -1  
$EndComp
Wire Wire Line
	10200 2050 10400 2050
Wire Wire Line
	10400 2050 10400 1650
$Comp
L VCC #PWR03
U 1 1 56D75A9D
P 10400 1650
F 0 "#PWR03" H 10400 1500 50  0001 C CNN
F 1 "VCC" H 10400 1800 50  0000 C CNN
F 2 "" H 10400 1650 50  0000 C CNN
F 3 "" H 10400 1650 50  0000 C CNN
	1    10400 1650
	1    0    0    -1  
$EndComp
Wire Wire Line
	10200 1950 10450 1950
Wire Wire Line
	10450 2150 10200 2150
Wire Wire Line
	10200 2250 10450 2250
Wire Wire Line
	10450 2350 10200 2350
Wire Wire Line
	10200 2450 10450 2450
Wire Wire Line
	10450 2550 10200 2550
Wire Wire Line
	10200 2650 10450 2650
Wire Wire Line
	10450 2750 10200 2750
Wire Wire Line
	10200 2850 10450 2850
Wire Notes Line
	11200 3400 8500 3400
Wire Notes Line
	8500 3400 8500 500 
Text Notes 9600 1750 0    60   ~ 0
1
$Comp
L CONN_02X05 J1
U 1 1 59CFC69C
P 9400 1150
F 0 "J1" H 9400 1450 50  0000 C CNN
F 1 "CONN_02X05" H 9400 850 50  0000 C CNN
F 2 "Pin_Headers:Pin_Header_Straight_2x05_Pitch2.54mm" H 9400 -50 50  0001 C CNN
F 3 "" H 9400 -50 50  0001 C CNN
	1    9400 1150
	1    0    0    -1  
$EndComp
Text Label 9150 950  2    60   ~ 0
11(**/MOSI)
NoConn ~ 9150 1050
Text Label 9150 1150 2    60   ~ 0
10(**/SS)
Text Label 9150 1250 2    60   ~ 0
13(SCK)
Text Label 9150 1350 2    60   ~ 0
12(MISO)
$Comp
L VCC #PWR04
U 1 1 59CFC7AF
P 9800 950
F 0 "#PWR04" H 9800 800 50  0001 C CNN
F 1 "VCC" H 9800 1100 50  0000 C CNN
F 2 "" H 9800 950 50  0000 C CNN
F 3 "" H 9800 950 50  0000 C CNN
	1    9800 950 
	1    0    0    -1  
$EndComp
$Comp
L GND #PWR05
U 1 1 59CFC7DE
P 10000 1350
F 0 "#PWR05" H 10000 1100 50  0001 C CNN
F 1 "GND" H 10000 1200 50  0000 C CNN
F 2 "" H 10000 1350 50  0000 C CNN
F 3 "" H 10000 1350 50  0000 C CNN
	1    10000 1350
	1    0    0    -1  
$EndComp
Wire Wire Line
	9650 950  9800 950 
Wire Wire Line
	9650 1050 10000 1050
Wire Wire Line
	10000 1050 10000 1350
Wire Wire Line
	9650 1150 10000 1150
Connection ~ 10000 1150
Wire Wire Line
	9650 1250 10000 1250
Connection ~ 10000 1250
Wire Wire Line
	10000 1350 9650 1350
NoConn ~ 8950 2150
NoConn ~ 8950 2250
NoConn ~ 8950 2350
NoConn ~ 8950 2450
NoConn ~ 8950 2550
NoConn ~ 8950 2650
NoConn ~ 8950 2750
NoConn ~ 8950 2850
NoConn ~ 10450 2450
NoConn ~ 10450 2350
NoConn ~ 10450 2250
NoConn ~ 10450 2150
NoConn ~ 10200 1750
$Comp
L VCC #PWR06
U 1 1 59CFCA18
P 9650 3100
F 0 "#PWR06" H 9650 2950 50  0001 C CNN
F 1 "VCC" H 9650 3250 50  0000 C CNN
F 2 "" H 9650 3100 50  0001 C CNN
F 3 "" H 9650 3100 50  0001 C CNN
	1    9650 3100
	1    0    0    -1  
$EndComp
$Comp
L GND #PWR07
U 1 1 59CFCA32
P 9900 3150
F 0 "#PWR07" H 9900 2900 50  0001 C CNN
F 1 "GND" H 9900 3000 50  0000 C CNN
F 2 "" H 9900 3150 50  0001 C CNN
F 3 "" H 9900 3150 50  0001 C CNN
	1    9900 3150
	1    0    0    -1  
$EndComp
$Comp
L PWR_FLAG #FLG08
U 1 1 59CFCA4C
P 9900 3150
F 0 "#FLG08" H 9900 3225 50  0001 C CNN
F 1 "PWR_FLAG" H 9900 3300 50  0000 C CNN
F 2 "" H 9900 3150 50  0001 C CNN
F 3 "" H 9900 3150 50  0001 C CNN
	1    9900 3150
	1    0    0    -1  
$EndComp
$Comp
L PWR_FLAG #FLG09
U 1 1 59CFCA67
P 9650 3100
F 0 "#FLG09" H 9650 3175 50  0001 C CNN
F 1 "PWR_FLAG" H 9650 3250 50  0000 C CNN
F 2 "" H 9650 3100 50  0001 C CNN
F 3 "" H 9650 3100 50  0001 C CNN
	1    9650 3100
	-1   0    0    1   
$EndComp
$Comp
L SW_Push SW1
U 1 1 59CFCB30
P 10750 900
F 0 "SW1" H 10800 1000 50  0000 L CNN
F 1 "SW_Push" H 10750 840 50  0000 C CNN
F 2 "w_switch:smd_push2" H 10750 1100 50  0001 C CNN
F 3 "" H 10750 1100 50  0001 C CNN
	1    10750 900 
	1    0    0    -1  
$EndComp
$Comp
L R R1
U 1 1 59CFCBD1
P 10300 900
F 0 "R1" V 10380 900 50  0000 C CNN
F 1 "10k" V 10300 900 50  0000 C CNN
F 2 "Resistors_SMD:R_0603_HandSoldering" V 10230 900 50  0001 C CNN
F 3 "" H 10300 900 50  0001 C CNN
	1    10300 900 
	0    -1   -1   0   
$EndComp
$Comp
L C_Small C1
U 1 1 59CFCC16
P 10500 700
F 0 "C1" H 10510 770 50  0000 L CNN
F 1 "100nF" H 10510 620 50  0000 L CNN
F 2 "Capacitors_SMD:C_0603_HandSoldering" H 10500 700 50  0001 C CNN
F 3 "" H 10500 700 50  0001 C CNN
	1    10500 700 
	1    0    0    -1  
$EndComp
Text Label 10500 1100 3    60   ~ 0
Reset
Wire Wire Line
	10500 800  10500 1100
Wire Wire Line
	10450 900  10550 900 
Connection ~ 10500 900 
Text Label 10500 600  0    60   ~ 0
DTR
$Comp
L GND #PWR010
U 1 1 59CFCFCF
P 11050 1000
F 0 "#PWR010" H 11050 750 50  0001 C CNN
F 1 "GND" H 11050 850 50  0000 C CNN
F 2 "" H 11050 1000 50  0001 C CNN
F 3 "" H 11050 1000 50  0001 C CNN
	1    11050 1000
	1    0    0    -1  
$EndComp
Wire Wire Line
	10950 900  11050 900 
Wire Wire Line
	11050 900  11050 1000
$Comp
L VCC #PWR011
U 1 1 59CFD078
P 10150 750
F 0 "#PWR011" H 10150 600 50  0001 C CNN
F 1 "VCC" H 10150 900 50  0000 C CNN
F 2 "" H 10150 750 50  0001 C CNN
F 3 "" H 10150 750 50  0001 C CNN
	1    10150 750 
	1    0    0    -1  
$EndComp
Wire Wire Line
	10150 900  10150 750 
$Comp
L CONN_01X01 J2
U 1 1 59D20A1C
P 8150 2750
F 0 "J2" H 8150 2850 50  0000 C CNN
F 1 "Aloes_Logo" V 8250 2750 50  0000 C CNN
F 2 "Aloes:Aloes_mini" H 8150 2750 50  0001 C CNN
F 3 "" H 8150 2750 50  0001 C CNN
	1    8150 2750
	1    0    0    -1  
$EndComp
NoConn ~ 7950 2750
$EndSCHEMATC
