%!PS-Adobe-3.0
%%Creator: PCBNEW
%%CreationDate: Fri Oct 27 10:19:47 2017
%%Title: /home/ed/Kicad/ArduinoISP_ext/gerber/ArduinoISP_ext-drl_map.ps
%%Pages: 1
%%PageOrder: Ascend
%%BoundingBox: 0 0 596 842
%%DocumentMedia: A4 595 842 0 () ()
%%Orientation: Landscape
%%EndComments
%%BeginProlog
/line { newpath moveto lineto stroke } bind def
/cir0 { newpath 0 360 arc stroke } bind def
/cir1 { newpath 0 360 arc gsave fill grestore stroke } bind def
/cir2 { newpath 0 360 arc gsave fill grestore stroke } bind def
/arc0 { newpath arc stroke } bind def
/arc1 { newpath 4 index 4 index moveto arc closepath gsave fill
    grestore stroke } bind def
/arc2 { newpath 4 index 4 index moveto arc closepath gsave fill
    grestore stroke } bind def
/poly0 { stroke } bind def
/poly1 { closepath gsave fill grestore stroke } bind def
/poly2 { closepath gsave fill grestore stroke } bind def
/rect0 { rectstroke } bind def
/rect1 { rectfill } bind def
/rect2 { rectfill } bind def
/linemode0 { 0 setlinecap 0 setlinejoin 0 setlinewidth } bind def
/linemode1 { 1 setlinecap 1 setlinejoin } bind def
/dashedline { [200] 100 setdash } bind def
/solidline { [] 0 setdash } bind def
/phantomshow { moveto
    /KicadFont findfont 0.000001 scalefont setfont
    show } bind def
/textshow { gsave
    findfont exch scalefont setfont concat 1 scale 0 0 moveto show
    } bind def
/reencodefont {
  findfont dup length dict begin
  { 1 index /FID ne
    { def }
    { pop pop } ifelse
  } forall
  /Encoding ISOLatin1Encoding def
  currentdict
  end } bind def
/KicadFont /Helvetica reencodefont definefont pop
/KicadFont-Bold /Helvetica-Bold reencodefont definefont pop
/KicadFont-Oblique /Helvetica-Oblique reencodefont definefont pop
/KicadFont-BoldOblique /Helvetica-BoldOblique reencodefont definefont pop
%%EndProlog
%%Page: 1 1
%%BeginPageSetup
gsave
0.0072 0.0072 scale
linemode1
82680 0 translate 90 rotate
150 setlinewidth
%%EndPageSetup
0 0 0 setrgbcolor
118.11 setlinewidth
newpath
68965 38376 moveto
47965 38376 lineto
stroke
0 0 0 setrgbcolor
newpath
68965 77376 moveto
68965 38376 lineto
stroke
0 0 0 setrgbcolor
newpath
47965 77376 moveto
68965 77376 lineto
stroke
0 0 0 setrgbcolor
newpath
47965 38376 moveto
47965 77376 lineto
stroke
78.7394 setlinewidth
newpath
53728.8 64112.2 moveto
54201.2 63639.8 lineto
stroke
newpath
54201.2 64112.2 moveto
53728.8 63639.8 lineto
stroke
newpath
62976.5 40698.8 moveto
63448.9 40226.3 lineto
stroke
newpath
63448.9 40698.8 moveto
62976.5 40226.3 lineto
stroke
56965 70626 590.551 cir0
56965 67626 590.551 cir0
56965 64626 590.551 cir0
56965 61626 590.551 cir0
56965 58626 590.551 cir0
59965 70626 590.551 cir0
59965 67626 590.551 cir0
59965 64626 590.551 cir0
59965 61626 590.551 cir0
59965 58626 590.551 cir0
newpath
49465 73476 moveto
49465 72276 lineto
stroke
newpath
48865 72876 moveto
50065 72876 lineto
stroke
newpath
49465 70476 moveto
49465 69276 lineto
stroke
newpath
48865 69876 moveto
50065 69876 lineto
stroke
newpath
49465 67476 moveto
49465 66276 lineto
stroke
newpath
48865 66876 moveto
50065 66876 lineto
stroke
newpath
49465 64476 moveto
49465 63276 lineto
stroke
newpath
48865 63876 moveto
50065 63876 lineto
stroke
newpath
49465 61476 moveto
49465 60276 lineto
stroke
newpath
48865 60876 moveto
50065 60876 lineto
stroke
newpath
49465 58476 moveto
49465 57276 lineto
stroke
newpath
48865 57876 moveto
50065 57876 lineto
stroke
newpath
49465 55476 moveto
49465 54276 lineto
stroke
newpath
48865 54876 moveto
50065 54876 lineto
stroke
newpath
49465 52476 moveto
49465 51276 lineto
stroke
newpath
48865 51876 moveto
50065 51876 lineto
stroke
newpath
49465 49476 moveto
49465 48276 lineto
stroke
newpath
48865 48876 moveto
50065 48876 lineto
stroke
newpath
49465 46476 moveto
49465 45276 lineto
stroke
newpath
48865 45876 moveto
50065 45876 lineto
stroke
newpath
49465 43476 moveto
49465 42276 lineto
stroke
newpath
48865 42876 moveto
50065 42876 lineto
stroke
newpath
49465 40476 moveto
49465 39276 lineto
stroke
newpath
48865 39876 moveto
50065 39876 lineto
stroke
newpath
50965 76476 moveto
50965 75276 lineto
stroke
newpath
50365 75876 moveto
51565 75876 lineto
stroke
newpath
53965 76476 moveto
53965 75276 lineto
stroke
newpath
53365 75876 moveto
54565 75876 lineto
stroke
newpath
56965 76476 moveto
56965 75276 lineto
stroke
newpath
56365 75876 moveto
57565 75876 lineto
stroke
newpath
59965 76476 moveto
59965 75276 lineto
stroke
newpath
59365 75876 moveto
60565 75876 lineto
stroke
newpath
62965 76476 moveto
62965 75276 lineto
stroke
newpath
62365 75876 moveto
63565 75876 lineto
stroke
newpath
65965 76476 moveto
65965 75276 lineto
stroke
newpath
65365 75876 moveto
66565 75876 lineto
stroke
newpath
67465 73476 moveto
67465 72276 lineto
stroke
newpath
66865 72876 moveto
68065 72876 lineto
stroke
newpath
67465 70476 moveto
67465 69276 lineto
stroke
newpath
66865 69876 moveto
68065 69876 lineto
stroke
newpath
67465 67476 moveto
67465 66276 lineto
stroke
newpath
66865 66876 moveto
68065 66876 lineto
stroke
newpath
67465 64476 moveto
67465 63276 lineto
stroke
newpath
66865 63876 moveto
68065 63876 lineto
stroke
newpath
67465 61476 moveto
67465 60276 lineto
stroke
newpath
66865 60876 moveto
68065 60876 lineto
stroke
newpath
67465 58476 moveto
67465 57276 lineto
stroke
newpath
66865 57876 moveto
68065 57876 lineto
stroke
newpath
67465 55476 moveto
67465 54276 lineto
stroke
newpath
66865 54876 moveto
68065 54876 lineto
stroke
newpath
67465 52476 moveto
67465 51276 lineto
stroke
newpath
66865 51876 moveto
68065 51876 lineto
stroke
newpath
67465 49476 moveto
67465 48276 lineto
stroke
newpath
66865 48876 moveto
68065 48876 lineto
stroke
newpath
67465 46476 moveto
67465 45276 lineto
stroke
newpath
66865 45876 moveto
68065 45876 lineto
stroke
newpath
67465 43476 moveto
67465 42276 lineto
stroke
newpath
66865 42876 moveto
68065 42876 lineto
stroke
newpath
67465 40476 moveto
67465 39276 lineto
stroke
newpath
66865 39876 moveto
68065 39876 lineto
stroke
118.11 setlinewidth
newpath
48974.6 36483.4 moveto
48974.6 37664.5 lineto
49255.8 37664.5 lineto
49424.5 37608.3 lineto
49537 37495.8 lineto
49593.2 37383.3 lineto
49649.5 37158.3 lineto
49649.5 36989.6 lineto
49593.2 36764.6 lineto
49537 36652.2 lineto
49424.5 36539.7 lineto
49255.8 36483.4 lineto
48974.6 36483.4 lineto
stroke
newpath
50155.7 36483.4 moveto
50155.7 37270.8 lineto
stroke
newpath
50155.7 37045.9 moveto
50211.9 37158.3 lineto
50268.1 37214.6 lineto
50380.6 37270.8 lineto
50493.1 37270.8 lineto
stroke
newpath
50886.8 36483.4 moveto
50886.8 37270.8 lineto
stroke
newpath
50886.8 37664.5 moveto
50830.6 37608.3 lineto
50886.8 37552 lineto
50943.1 37608.3 lineto
50886.8 37664.5 lineto
50886.8 37552 lineto
stroke
newpath
51618 36483.4 moveto
51505.5 36539.7 lineto
51449.3 36652.2 lineto
51449.3 37664.5 lineto
stroke
newpath
52236.7 36483.4 moveto
52124.2 36539.7 lineto
52067.9 36652.2 lineto
52067.9 37664.5 lineto
stroke
newpath
53586.5 36483.4 moveto
53586.5 37664.5 lineto
53980.2 36820.9 lineto
54373.9 37664.5 lineto
54373.9 36483.4 lineto
stroke
newpath
55442.5 36483.4 moveto
55442.5 37102.1 lineto
55386.3 37214.6 lineto
55273.8 37270.8 lineto
55048.8 37270.8 lineto
54936.3 37214.6 lineto
stroke
newpath
55442.5 36539.7 moveto
55330 36483.4 lineto
55048.8 36483.4 lineto
54936.3 36539.7 lineto
54880.1 36652.2 lineto
54880.1 36764.6 lineto
54936.3 36877.1 lineto
55048.8 36933.4 lineto
55330 36933.4 lineto
55442.5 36989.6 lineto
stroke
newpath
56004.9 37270.8 moveto
56004.9 36089.7 lineto
stroke
newpath
56004.9 37214.6 moveto
56117.4 37270.8 lineto
56342.4 37270.8 lineto
56454.9 37214.6 lineto
56511.1 37158.3 lineto
56567.4 37045.9 lineto
56567.4 36708.4 lineto
56511.1 36595.9 lineto
56454.9 36539.7 lineto
56342.4 36483.4 lineto
56117.4 36483.4 lineto
56004.9 36539.7 lineto
stroke
newpath
57073.5 36595.9 moveto
57129.8 36539.7 lineto
57073.5 36483.4 lineto
57017.3 36539.7 lineto
57073.5 36595.9 lineto
57073.5 36483.4 lineto
stroke
newpath
57073.5 37214.6 moveto
57129.8 37158.3 lineto
57073.5 37102.1 lineto
57017.3 37158.3 lineto
57073.5 37214.6 lineto
57073.5 37102.1 lineto
stroke
newpath
47433.5 34773.6 moveto
47905.9 34301.2 lineto
stroke
newpath
47905.9 34773.6 moveto
47433.5 34301.2 lineto
stroke
newpath
49199.5 35184.2 moveto
49312 35184.2 lineto
49424.5 35128 lineto
49480.7 35071.7 lineto
49537 34959.2 lineto
49593.2 34734.3 lineto
49593.2 34453.1 lineto
49537 34228.1 lineto
49480.7 34115.6 lineto
49424.5 34059.4 lineto
49312 34003.1 lineto
49199.5 34003.1 lineto
49087 34059.4 lineto
49030.8 34115.6 lineto
48974.6 34228.1 lineto
48918.3 34453.1 lineto
48918.3 34734.3 lineto
48974.6 34959.2 lineto
49030.8 35071.7 lineto
49087 35128 lineto
49199.5 35184.2 lineto
stroke
newpath
50099.4 34115.6 moveto
50155.7 34059.4 lineto
50099.4 34003.1 lineto
50043.2 34059.4 lineto
50099.4 34115.6 lineto
50099.4 34003.1 lineto
stroke
newpath
51168 34790.5 moveto
51168 34003.1 lineto
stroke
newpath
50886.8 35240.5 moveto
50605.6 34396.8 lineto
51336.8 34396.8 lineto
stroke
newpath
52011.7 35184.2 moveto
52124.2 35184.2 lineto
52236.7 35128 lineto
52292.9 35071.7 lineto
52349.1 34959.2 lineto
52405.4 34734.3 lineto
52405.4 34453.1 lineto
52349.1 34228.1 lineto
52292.9 34115.6 lineto
52236.7 34059.4 lineto
52124.2 34003.1 lineto
52011.7 34003.1 lineto
51899.2 34059.4 lineto
51843 34115.6 lineto
51786.7 34228.1 lineto
51730.5 34453.1 lineto
51730.5 34734.3 lineto
51786.7 34959.2 lineto
51843 35071.7 lineto
51899.2 35128 lineto
52011.7 35184.2 lineto
stroke
newpath
52911.6 34003.1 moveto
52911.6 34790.5 lineto
stroke
newpath
52911.6 34678 moveto
52967.8 34734.3 lineto
53080.3 34790.5 lineto
53249 34790.5 lineto
53361.5 34734.3 lineto
53417.8 34621.8 lineto
53417.8 34003.1 lineto
stroke
newpath
53417.8 34621.8 moveto
53474 34734.3 lineto
53586.5 34790.5 lineto
53755.2 34790.5 lineto
53867.7 34734.3 lineto
53923.9 34621.8 lineto
53923.9 34003.1 lineto
stroke
newpath
54486.4 34003.1 moveto
54486.4 34790.5 lineto
stroke
newpath
54486.4 34678 moveto
54542.6 34734.3 lineto
54655.1 34790.5 lineto
54823.8 34790.5 lineto
54936.3 34734.3 lineto
54992.6 34621.8 lineto
54992.6 34003.1 lineto
stroke
newpath
54992.6 34621.8 moveto
55048.8 34734.3 lineto
55161.3 34790.5 lineto
55330 34790.5 lineto
55442.5 34734.3 lineto
55498.7 34621.8 lineto
55498.7 34003.1 lineto
stroke
newpath
57804.7 35240.5 moveto
56792.3 33721.9 lineto
stroke
newpath
59323.3 35184.2 moveto
59435.8 35184.2 lineto
59548.2 35128 lineto
59604.5 35071.7 lineto
59660.7 34959.2 lineto
59717 34734.3 lineto
59717 34453.1 lineto
59660.7 34228.1 lineto
59604.5 34115.6 lineto
59548.2 34059.4 lineto
59435.8 34003.1 lineto
59323.3 34003.1 lineto
59210.8 34059.4 lineto
59154.5 34115.6 lineto
59098.3 34228.1 lineto
59042.1 34453.1 lineto
59042.1 34734.3 lineto
59098.3 34959.2 lineto
59154.5 35071.7 lineto
59210.8 35128 lineto
59323.3 35184.2 lineto
stroke
newpath
60223.2 34115.6 moveto
60279.4 34059.4 lineto
60223.2 34003.1 lineto
60166.9 34059.4 lineto
60223.2 34115.6 lineto
60223.2 34003.1 lineto
stroke
newpath
61010.6 35184.2 moveto
61123 35184.2 lineto
61235.5 35128 lineto
61291.8 35071.7 lineto
61348 34959.2 lineto
61404.3 34734.3 lineto
61404.3 34453.1 lineto
61348 34228.1 lineto
61291.8 34115.6 lineto
61235.5 34059.4 lineto
61123 34003.1 lineto
61010.6 34003.1 lineto
60898.1 34059.4 lineto
60841.8 34115.6 lineto
60785.6 34228.1 lineto
60729.3 34453.1 lineto
60729.3 34734.3 lineto
60785.6 34959.2 lineto
60841.8 35071.7 lineto
60898.1 35128 lineto
61010.6 35184.2 lineto
stroke
newpath
62529.1 34003.1 moveto
61854.2 34003.1 lineto
stroke
newpath
62191.7 34003.1 moveto
62191.7 35184.2 lineto
62079.2 35015.5 lineto
61966.7 34903 lineto
61854.2 34846.8 lineto
stroke
newpath
63541.5 35184.2 moveto
63316.5 35184.2 lineto
63204 35128 lineto
63147.8 35071.7 lineto
63035.3 34903 lineto
62979.1 34678 lineto
62979.1 34228.1 lineto
63035.3 34115.6 lineto
63091.5 34059.4 lineto
63204 34003.1 lineto
63429 34003.1 lineto
63541.5 34059.4 lineto
63597.7 34115.6 lineto
63654 34228.1 lineto
63654 34509.3 lineto
63597.7 34621.8 lineto
63541.5 34678 lineto
63429 34734.3 lineto
63204 34734.3 lineto
63091.5 34678 lineto
63035.3 34621.8 lineto
62979.1 34509.3 lineto
stroke
newpath
64103.9 35184.2 moveto
64103.9 34959.2 lineto
stroke
newpath
64553.9 35184.2 moveto
64553.9 34959.2 lineto
stroke
newpath
66297.4 33553.2 moveto
66241.2 33609.4 lineto
66128.7 33778.1 lineto
66072.4 33890.6 lineto
66016.2 34059.4 lineto
65959.9 34340.6 lineto
65959.9 34565.5 lineto
66016.2 34846.8 lineto
66072.4 35015.5 lineto
66128.7 35128 lineto
66241.2 35296.7 lineto
66297.4 35352.9 lineto
stroke
newpath
66691.1 35071.7 moveto
66747.3 35128 lineto
66859.8 35184.2 lineto
67141 35184.2 lineto
67253.5 35128 lineto
67309.8 35071.7 lineto
67366 34959.2 lineto
67366 34846.8 lineto
67309.8 34678 lineto
66634.9 34003.1 lineto
67366 34003.1 lineto
stroke
newpath
68772.1 34003.1 moveto
68772.1 35184.2 lineto
stroke
newpath
69278.3 34003.1 moveto
69278.3 34621.8 lineto
69222 34734.3 lineto
69109.5 34790.5 lineto
68940.8 34790.5 lineto
68828.3 34734.3 lineto
68772.1 34678 lineto
stroke
newpath
70009.4 34003.1 moveto
69896.9 34059.4 lineto
69840.7 34115.6 lineto
69784.5 34228.1 lineto
69784.5 34565.5 lineto
69840.7 34678 lineto
69896.9 34734.3 lineto
70009.4 34790.5 lineto
70178.2 34790.5 lineto
70290.6 34734.3 lineto
70346.9 34678 lineto
70403.1 34565.5 lineto
70403.1 34228.1 lineto
70346.9 34115.6 lineto
70290.6 34059.4 lineto
70178.2 34003.1 lineto
70009.4 34003.1 lineto
stroke
newpath
71078 34003.1 moveto
70965.6 34059.4 lineto
70909.3 34171.8 lineto
70909.3 35184.2 lineto
stroke
newpath
71977.9 34059.4 moveto
71865.5 34003.1 lineto
71640.5 34003.1 lineto
71528 34059.4 lineto
71471.7 34171.8 lineto
71471.7 34621.8 lineto
71528 34734.3 lineto
71640.5 34790.5 lineto
71865.5 34790.5 lineto
71977.9 34734.3 lineto
72034.2 34621.8 lineto
72034.2 34509.3 lineto
71471.7 34396.8 lineto
stroke
newpath
72484.1 34059.4 moveto
72596.6 34003.1 lineto
72821.6 34003.1 lineto
72934.1 34059.4 lineto
72990.3 34171.8 lineto
72990.3 34228.1 lineto
72934.1 34340.6 lineto
72821.6 34396.8 lineto
72652.9 34396.8 lineto
72540.4 34453.1 lineto
72484.1 34565.5 lineto
72484.1 34621.8 lineto
72540.4 34734.3 lineto
72652.9 34790.5 lineto
72821.6 34790.5 lineto
72934.1 34734.3 lineto
stroke
newpath
73384 33553.2 moveto
73440.3 33609.4 lineto
73552.7 33778.1 lineto
73609 33890.6 lineto
73665.2 34059.4 lineto
73721.5 34340.6 lineto
73721.5 34565.5 lineto
73665.2 34846.8 lineto
73609 35015.5 lineto
73552.7 35128 lineto
73440.3 35296.7 lineto
73384 35352.9 lineto
stroke
47315.4 32978.4 590.551 cir0
newpath
49593.2 32444.1 moveto
48918.3 32444.1 lineto
stroke
newpath
49255.8 32444.1 moveto
49255.8 33625.2 lineto
49143.3 33456.4 lineto
49030.8 33343.9 lineto
48918.3 33287.7 lineto
stroke
newpath
50099.4 32556.5 moveto
50155.7 32500.3 lineto
50099.4 32444.1 lineto
50043.2 32500.3 lineto
50099.4 32556.5 lineto
50099.4 32444.1 lineto
stroke
newpath
50886.8 33625.2 moveto
50999.3 33625.2 lineto
51111.8 33568.9 lineto
51168 33512.7 lineto
51224.3 33400.2 lineto
51280.5 33175.2 lineto
51280.5 32894 lineto
51224.3 32669 lineto
51168 32556.5 lineto
51111.8 32500.3 lineto
50999.3 32444.1 lineto
50886.8 32444.1 lineto
50774.3 32500.3 lineto
50718.1 32556.5 lineto
50661.8 32669 lineto
50605.6 32894 lineto
50605.6 33175.2 lineto
50661.8 33400.2 lineto
50718.1 33512.7 lineto
50774.3 33568.9 lineto
50886.8 33625.2 lineto
stroke
newpath
52011.7 33625.2 moveto
52124.2 33625.2 lineto
52236.7 33568.9 lineto
52292.9 33512.7 lineto
52349.1 33400.2 lineto
52405.4 33175.2 lineto
52405.4 32894 lineto
52349.1 32669 lineto
52292.9 32556.5 lineto
52236.7 32500.3 lineto
52124.2 32444.1 lineto
52011.7 32444.1 lineto
51899.2 32500.3 lineto
51843 32556.5 lineto
51786.7 32669 lineto
51730.5 32894 lineto
51730.5 33175.2 lineto
51786.7 33400.2 lineto
51843 33512.7 lineto
51899.2 33568.9 lineto
52011.7 33625.2 lineto
stroke
newpath
52911.6 32444.1 moveto
52911.6 33231.5 lineto
stroke
newpath
52911.6 33119 moveto
52967.8 33175.2 lineto
53080.3 33231.5 lineto
53249 33231.5 lineto
53361.5 33175.2 lineto
53417.8 33062.7 lineto
53417.8 32444.1 lineto
stroke
newpath
53417.8 33062.7 moveto
53474 33175.2 lineto
53586.5 33231.5 lineto
53755.2 33231.5 lineto
53867.7 33175.2 lineto
53923.9 33062.7 lineto
53923.9 32444.1 lineto
stroke
newpath
54486.4 32444.1 moveto
54486.4 33231.5 lineto
stroke
newpath
54486.4 33119 moveto
54542.6 33175.2 lineto
54655.1 33231.5 lineto
54823.8 33231.5 lineto
54936.3 33175.2 lineto
54992.6 33062.7 lineto
54992.6 32444.1 lineto
stroke
newpath
54992.6 33062.7 moveto
55048.8 33175.2 lineto
55161.3 33231.5 lineto
55330 33231.5 lineto
55442.5 33175.2 lineto
55498.7 33062.7 lineto
55498.7 32444.1 lineto
stroke
newpath
57804.7 33681.4 moveto
56792.3 32162.8 lineto
stroke
newpath
59323.3 33625.2 moveto
59435.8 33625.2 lineto
59548.2 33568.9 lineto
59604.5 33512.7 lineto
59660.7 33400.2 lineto
59717 33175.2 lineto
59717 32894 lineto
59660.7 32669 lineto
59604.5 32556.5 lineto
59548.2 32500.3 lineto
59435.8 32444.1 lineto
59323.3 32444.1 lineto
59210.8 32500.3 lineto
59154.5 32556.5 lineto
59098.3 32669 lineto
59042.1 32894 lineto
59042.1 33175.2 lineto
59098.3 33400.2 lineto
59154.5 33512.7 lineto
59210.8 33568.9 lineto
59323.3 33625.2 lineto
stroke
newpath
60223.2 32556.5 moveto
60279.4 32500.3 lineto
60223.2 32444.1 lineto
60166.9 32500.3 lineto
60223.2 32556.5 lineto
60223.2 32444.1 lineto
stroke
newpath
61010.6 33625.2 moveto
61123 33625.2 lineto
61235.5 33568.9 lineto
61291.8 33512.7 lineto
61348 33400.2 lineto
61404.3 33175.2 lineto
61404.3 32894 lineto
61348 32669 lineto
61291.8 32556.5 lineto
61235.5 32500.3 lineto
61123 32444.1 lineto
61010.6 32444.1 lineto
60898.1 32500.3 lineto
60841.8 32556.5 lineto
60785.6 32669 lineto
60729.3 32894 lineto
60729.3 33175.2 lineto
60785.6 33400.2 lineto
60841.8 33512.7 lineto
60898.1 33568.9 lineto
61010.6 33625.2 lineto
stroke
newpath
61798 33625.2 moveto
62529.1 33625.2 lineto
62135.4 33175.2 lineto
62304.1 33175.2 lineto
62416.6 33119 lineto
62472.9 33062.7 lineto
62529.1 32950.2 lineto
62529.1 32669 lineto
62472.9 32556.5 lineto
62416.6 32500.3 lineto
62304.1 32444.1 lineto
61966.7 32444.1 lineto
61854.2 32500.3 lineto
61798 32556.5 lineto
stroke
newpath
63091.5 32444.1 moveto
63316.5 32444.1 lineto
63429 32500.3 lineto
63485.2 32556.5 lineto
63597.7 32725.3 lineto
63654 32950.2 lineto
63654 33400.2 lineto
63597.7 33512.7 lineto
63541.5 33568.9 lineto
63429 33625.2 lineto
63204 33625.2 lineto
63091.5 33568.9 lineto
63035.3 33512.7 lineto
62979.1 33400.2 lineto
62979.1 33119 lineto
63035.3 33006.5 lineto
63091.5 32950.2 lineto
63204 32894 lineto
63429 32894 lineto
63541.5 32950.2 lineto
63597.7 33006.5 lineto
63654 33119 lineto
stroke
newpath
64103.9 33625.2 moveto
64103.9 33400.2 lineto
stroke
newpath
64553.9 33625.2 moveto
64553.9 33400.2 lineto
stroke
newpath
66297.4 31994.1 moveto
66241.2 32050.4 lineto
66128.7 32219.1 lineto
66072.4 32331.6 lineto
66016.2 32500.3 lineto
65959.9 32781.5 lineto
65959.9 33006.5 lineto
66016.2 33287.7 lineto
66072.4 33456.4 lineto
66128.7 33568.9 lineto
66241.2 33737.6 lineto
66297.4 33793.9 lineto
stroke
newpath
67366 32444.1 moveto
66691.1 32444.1 lineto
stroke
newpath
67028.6 32444.1 moveto
67028.6 33625.2 lineto
66916.1 33456.4 lineto
66803.6 33343.9 lineto
66691.1 33287.7 lineto
stroke
newpath
68097.2 33625.2 moveto
68209.7 33625.2 lineto
68322.1 33568.9 lineto
68378.4 33512.7 lineto
68434.6 33400.2 lineto
68490.9 33175.2 lineto
68490.9 32894 lineto
68434.6 32669 lineto
68378.4 32556.5 lineto
68322.1 32500.3 lineto
68209.7 32444.1 lineto
68097.2 32444.1 lineto
67984.7 32500.3 lineto
67928.4 32556.5 lineto
67872.2 32669 lineto
67816 32894 lineto
67816 33175.2 lineto
67872.2 33400.2 lineto
67928.4 33512.7 lineto
67984.7 33568.9 lineto
68097.2 33625.2 lineto
stroke
newpath
69896.9 32444.1 moveto
69896.9 33625.2 lineto
stroke
newpath
70403.1 32444.1 moveto
70403.1 33062.7 lineto
70346.9 33175.2 lineto
70234.4 33231.5 lineto
70065.7 33231.5 lineto
69953.2 33175.2 lineto
69896.9 33119 lineto
stroke
newpath
71134.3 32444.1 moveto
71021.8 32500.3 lineto
70965.6 32556.5 lineto
70909.3 32669 lineto
70909.3 33006.5 lineto
70965.6 33119 lineto
71021.8 33175.2 lineto
71134.3 33231.5 lineto
71303 33231.5 lineto
71415.5 33175.2 lineto
71471.7 33119 lineto
71528 33006.5 lineto
71528 32669 lineto
71471.7 32556.5 lineto
71415.5 32500.3 lineto
71303 32444.1 lineto
71134.3 32444.1 lineto
stroke
newpath
72202.9 32444.1 moveto
72090.4 32500.3 lineto
72034.2 32612.8 lineto
72034.2 33625.2 lineto
stroke
newpath
73102.8 32500.3 moveto
72990.3 32444.1 lineto
72765.3 32444.1 lineto
72652.9 32500.3 lineto
72596.6 32612.8 lineto
72596.6 33062.7 lineto
72652.9 33175.2 lineto
72765.3 33231.5 lineto
72990.3 33231.5 lineto
73102.8 33175.2 lineto
73159 33062.7 lineto
73159 32950.2 lineto
72596.6 32837.8 lineto
stroke
newpath
73609 32500.3 moveto
73721.5 32444.1 lineto
73946.4 32444.1 lineto
74058.9 32500.3 lineto
74115.2 32612.8 lineto
74115.2 32669 lineto
74058.9 32781.5 lineto
73946.4 32837.8 lineto
73777.7 32837.8 lineto
73665.2 32894 lineto
73609 33006.5 lineto
73609 33062.7 lineto
73665.2 33175.2 lineto
73777.7 33231.5 lineto
73946.4 33231.5 lineto
74058.9 33175.2 lineto
stroke
newpath
74508.9 31994.1 moveto
74565.1 32050.4 lineto
74677.6 32219.1 lineto
74733.8 32331.6 lineto
74790.1 32500.3 lineto
74846.3 32781.5 lineto
74846.3 33006.5 lineto
74790.1 33287.7 lineto
74733.8 33456.4 lineto
74677.6 33568.9 lineto
74565.1 33737.6 lineto
74508.9 33793.9 lineto
stroke
newpath
47305.9 31885.4 moveto
47305.9 30685.4 lineto
stroke
newpath
46705.9 31285.4 moveto
47905.9 31285.4 lineto
stroke
newpath
49593.2 30751.1 moveto
48918.3 30751.1 lineto
stroke
newpath
49255.8 30751.1 moveto
49255.8 31932.2 lineto
49143.3 31763.5 lineto
49030.8 31651 lineto
48918.3 31594.8 lineto
stroke
newpath
50099.4 30863.6 moveto
50155.7 30807.4 lineto
50099.4 30751.1 lineto
50043.2 30807.4 lineto
50099.4 30863.6 lineto
50099.4 30751.1 lineto
stroke
newpath
50886.8 31932.2 moveto
50999.3 31932.2 lineto
51111.8 31876 lineto
51168 31819.8 lineto
51224.3 31707.3 lineto
51280.5 31482.3 lineto
51280.5 31201.1 lineto
51224.3 30976.1 lineto
51168 30863.6 lineto
51111.8 30807.4 lineto
50999.3 30751.1 lineto
50886.8 30751.1 lineto
50774.3 30807.4 lineto
50718.1 30863.6 lineto
50661.8 30976.1 lineto
50605.6 31201.1 lineto
50605.6 31482.3 lineto
50661.8 31707.3 lineto
50718.1 31819.8 lineto
50774.3 31876 lineto
50886.8 31932.2 lineto
stroke
newpath
51730.5 31819.8 moveto
51786.7 31876 lineto
51899.2 31932.2 lineto
52180.4 31932.2 lineto
52292.9 31876 lineto
52349.1 31819.8 lineto
52405.4 31707.3 lineto
52405.4 31594.8 lineto
52349.1 31426.1 lineto
51674.2 30751.1 lineto
52405.4 30751.1 lineto
stroke
newpath
52911.6 30751.1 moveto
52911.6 31538.5 lineto
stroke
newpath
52911.6 31426.1 moveto
52967.8 31482.3 lineto
53080.3 31538.5 lineto
53249 31538.5 lineto
53361.5 31482.3 lineto
53417.8 31369.8 lineto
53417.8 30751.1 lineto
stroke
newpath
53417.8 31369.8 moveto
53474 31482.3 lineto
53586.5 31538.5 lineto
53755.2 31538.5 lineto
53867.7 31482.3 lineto
53923.9 31369.8 lineto
53923.9 30751.1 lineto
stroke
newpath
54486.4 30751.1 moveto
54486.4 31538.5 lineto
stroke
newpath
54486.4 31426.1 moveto
54542.6 31482.3 lineto
54655.1 31538.5 lineto
54823.8 31538.5 lineto
54936.3 31482.3 lineto
54992.6 31369.8 lineto
54992.6 30751.1 lineto
stroke
newpath
54992.6 31369.8 moveto
55048.8 31482.3 lineto
55161.3 31538.5 lineto
55330 31538.5 lineto
55442.5 31482.3 lineto
55498.7 31369.8 lineto
55498.7 30751.1 lineto
stroke
newpath
57804.7 31988.5 moveto
56792.3 30469.9 lineto
stroke
newpath
59323.3 31932.2 moveto
59435.8 31932.2 lineto
59548.2 31876 lineto
59604.5 31819.8 lineto
59660.7 31707.3 lineto
59717 31482.3 lineto
59717 31201.1 lineto
59660.7 30976.1 lineto
59604.5 30863.6 lineto
59548.2 30807.4 lineto
59435.8 30751.1 lineto
59323.3 30751.1 lineto
59210.8 30807.4 lineto
59154.5 30863.6 lineto
59098.3 30976.1 lineto
59042.1 31201.1 lineto
59042.1 31482.3 lineto
59098.3 31707.3 lineto
59154.5 31819.8 lineto
59210.8 31876 lineto
59323.3 31932.2 lineto
stroke
newpath
60223.2 30863.6 moveto
60279.4 30807.4 lineto
60223.2 30751.1 lineto
60166.9 30807.4 lineto
60223.2 30863.6 lineto
60223.2 30751.1 lineto
stroke
newpath
61010.6 31932.2 moveto
61123 31932.2 lineto
61235.5 31876 lineto
61291.8 31819.8 lineto
61348 31707.3 lineto
61404.3 31482.3 lineto
61404.3 31201.1 lineto
61348 30976.1 lineto
61291.8 30863.6 lineto
61235.5 30807.4 lineto
61123 30751.1 lineto
61010.6 30751.1 lineto
60898.1 30807.4 lineto
60841.8 30863.6 lineto
60785.6 30976.1 lineto
60729.3 31201.1 lineto
60729.3 31482.3 lineto
60785.6 31707.3 lineto
60841.8 31819.8 lineto
60898.1 31876 lineto
61010.6 31932.2 lineto
stroke
newpath
62416.6 31538.5 moveto
62416.6 30751.1 lineto
stroke
newpath
62135.4 31988.5 moveto
61854.2 31144.8 lineto
62585.4 31144.8 lineto
stroke
newpath
63260.3 31932.2 moveto
63372.8 31932.2 lineto
63485.2 31876 lineto
63541.5 31819.8 lineto
63597.7 31707.3 lineto
63654 31482.3 lineto
63654 31201.1 lineto
63597.7 30976.1 lineto
63541.5 30863.6 lineto
63485.2 30807.4 lineto
63372.8 30751.1 lineto
63260.3 30751.1 lineto
63147.8 30807.4 lineto
63091.5 30863.6 lineto
63035.3 30976.1 lineto
62979.1 31201.1 lineto
62979.1 31482.3 lineto
63035.3 31707.3 lineto
63091.5 31819.8 lineto
63147.8 31876 lineto
63260.3 31932.2 lineto
stroke
newpath
64103.9 31932.2 moveto
64103.9 31707.3 lineto
stroke
newpath
64553.9 31932.2 moveto
64553.9 31707.3 lineto
stroke
newpath
66297.4 30301.2 moveto
66241.2 30357.4 lineto
66128.7 30526.2 lineto
66072.4 30638.7 lineto
66016.2 30807.4 lineto
65959.9 31088.6 lineto
65959.9 31313.6 lineto
66016.2 31594.8 lineto
66072.4 31763.5 lineto
66128.7 31876 lineto
66241.2 32044.7 lineto
66297.4 32101 lineto
stroke
newpath
66634.9 31932.2 moveto
67366 31932.2 lineto
66972.3 31482.3 lineto
67141 31482.3 lineto
67253.5 31426.1 lineto
67309.8 31369.8 lineto
67366 31257.3 lineto
67366 30976.1 lineto
67309.8 30863.6 lineto
67253.5 30807.4 lineto
67141 30751.1 lineto
66803.6 30751.1 lineto
66691.1 30807.4 lineto
66634.9 30863.6 lineto
stroke
newpath
68097.2 31932.2 moveto
68209.7 31932.2 lineto
68322.1 31876 lineto
68378.4 31819.8 lineto
68434.6 31707.3 lineto
68490.9 31482.3 lineto
68490.9 31201.1 lineto
68434.6 30976.1 lineto
68378.4 30863.6 lineto
68322.1 30807.4 lineto
68209.7 30751.1 lineto
68097.2 30751.1 lineto
67984.7 30807.4 lineto
67928.4 30863.6 lineto
67872.2 30976.1 lineto
67816 31201.1 lineto
67816 31482.3 lineto
67872.2 31707.3 lineto
67928.4 31819.8 lineto
67984.7 31876 lineto
68097.2 31932.2 lineto
stroke
newpath
69896.9 30751.1 moveto
69896.9 31932.2 lineto
stroke
newpath
70403.1 30751.1 moveto
70403.1 31369.8 lineto
70346.9 31482.3 lineto
70234.4 31538.5 lineto
70065.7 31538.5 lineto
69953.2 31482.3 lineto
69896.9 31426.1 lineto
stroke
newpath
71134.3 30751.1 moveto
71021.8 30807.4 lineto
70965.6 30863.6 lineto
70909.3 30976.1 lineto
70909.3 31313.6 lineto
70965.6 31426.1 lineto
71021.8 31482.3 lineto
71134.3 31538.5 lineto
71303 31538.5 lineto
71415.5 31482.3 lineto
71471.7 31426.1 lineto
71528 31313.6 lineto
71528 30976.1 lineto
71471.7 30863.6 lineto
71415.5 30807.4 lineto
71303 30751.1 lineto
71134.3 30751.1 lineto
stroke
newpath
72202.9 30751.1 moveto
72090.4 30807.4 lineto
72034.2 30919.9 lineto
72034.2 31932.2 lineto
stroke
newpath
73102.8 30807.4 moveto
72990.3 30751.1 lineto
72765.3 30751.1 lineto
72652.9 30807.4 lineto
72596.6 30919.9 lineto
72596.6 31369.8 lineto
72652.9 31482.3 lineto
72765.3 31538.5 lineto
72990.3 31538.5 lineto
73102.8 31482.3 lineto
73159 31369.8 lineto
73159 31257.3 lineto
72596.6 31144.8 lineto
stroke
newpath
73609 30807.4 moveto
73721.5 30751.1 lineto
73946.4 30751.1 lineto
74058.9 30807.4 lineto
74115.2 30919.9 lineto
74115.2 30976.1 lineto
74058.9 31088.6 lineto
73946.4 31144.8 lineto
73777.7 31144.8 lineto
73665.2 31201.1 lineto
73609 31313.6 lineto
73609 31369.8 lineto
73665.2 31482.3 lineto
73777.7 31538.5 lineto
73946.4 31538.5 lineto
74058.9 31482.3 lineto
stroke
newpath
74508.9 30301.2 moveto
74565.1 30357.4 lineto
74677.6 30526.2 lineto
74733.8 30638.7 lineto
74790.1 30807.4 lineto
74846.3 31088.6 lineto
74846.3 31313.6 lineto
74790.1 31594.8 lineto
74733.8 31763.5 lineto
74677.6 31876 lineto
74565.1 32044.7 lineto
74508.9 32101 lineto
stroke
showpage
grestore
%%EOF
