G04 #@! TF.FileFunction,Copper,L1,Top,Signal*
%FSLAX46Y46*%
G04 Gerber Fmt 4.6, Leading zero omitted, Abs format (unit mm)*
G04 Created by KiCad (PCBNEW 4.0.7-e2-6376~58~ubuntu17.04.1) date Fri Oct 27 10:19:43 2017*
%MOMM*%
%LPD*%
G01*
G04 APERTURE LIST*
%ADD10C,0.100000*%
%ADD11O,2.032000X1.727200*%
%ADD12O,1.727200X2.032000*%
%ADD13R,1.200000X0.750000*%
%ADD14R,1.200000X0.900000*%
%ADD15R,1.000760X1.000760*%
%ADD16R,1.700000X1.700000*%
%ADD17O,1.700000X1.700000*%
%ADD18C,0.600000*%
%ADD19C,0.250000*%
%ADD20C,0.254000*%
G04 APERTURE END LIST*
D10*
D11*
X138430000Y-85090000D03*
X138430000Y-87630000D03*
X138430000Y-90170000D03*
X138430000Y-92710000D03*
X138430000Y-95250000D03*
X138430000Y-97790000D03*
X138430000Y-100330000D03*
X138430000Y-102870000D03*
X138430000Y-105410000D03*
X138430000Y-107950000D03*
X138430000Y-110490000D03*
X138430000Y-113030000D03*
D12*
X139700000Y-82550000D03*
X142240000Y-82550000D03*
X144780000Y-82550000D03*
X147320000Y-82550000D03*
X149860000Y-82550000D03*
X152400000Y-82550000D03*
D11*
X153670000Y-85090000D03*
X153670000Y-87630000D03*
X153670000Y-90170000D03*
X153670000Y-92710000D03*
X153670000Y-95250000D03*
X153670000Y-97790000D03*
X153670000Y-100330000D03*
X153670000Y-102870000D03*
X153670000Y-105410000D03*
X153670000Y-107950000D03*
X153670000Y-110490000D03*
X153670000Y-113030000D03*
D13*
X141925000Y-100330000D03*
X143825000Y-100330000D03*
D14*
X149690000Y-100330000D03*
X147490000Y-100330000D03*
D15*
X143050260Y-108640880D03*
X149049740Y-112339120D03*
X143050260Y-112339120D03*
X149049740Y-108640880D03*
D16*
X144780000Y-86995000D03*
D17*
X147320000Y-86995000D03*
X144780000Y-89535000D03*
X147320000Y-89535000D03*
X144780000Y-92075000D03*
X147320000Y-92075000D03*
X144780000Y-94615000D03*
X147320000Y-94615000D03*
X144780000Y-97155000D03*
X147320000Y-97155000D03*
D18*
X142240000Y-92710000D03*
X150069700Y-112533400D03*
D19*
X138430000Y-90170000D02*
X138430000Y-91358900D01*
X138950100Y-91358900D02*
X138430000Y-91358900D01*
X139781000Y-92189800D02*
X138950100Y-91358900D01*
X139781000Y-99662200D02*
X139781000Y-92189800D01*
X141923800Y-101805000D02*
X139781000Y-99662200D01*
X143050300Y-101805000D02*
X141923800Y-101805000D01*
X143050300Y-108640900D02*
X143050300Y-101805000D01*
X143050300Y-101805000D02*
X143825000Y-101030300D01*
X143825000Y-100330000D02*
X143825000Y-100680100D01*
X143825000Y-100680100D02*
X143825000Y-101030300D01*
X146214600Y-100680100D02*
X146564700Y-100330000D01*
X143825000Y-100680100D02*
X146214600Y-100680100D01*
X147490000Y-100330000D02*
X146564700Y-100330000D01*
X147320000Y-97155000D02*
X147320000Y-99060000D01*
X142240000Y-97790000D02*
X142240000Y-92710000D01*
X143510000Y-99060000D02*
X142240000Y-97790000D01*
X147320000Y-99060000D02*
X143510000Y-99060000D01*
X149049700Y-112339100D02*
X149875400Y-112339100D01*
X150069700Y-112533400D02*
X149875400Y-112339100D01*
X139700000Y-82550000D02*
X140888900Y-82550000D01*
X141925000Y-100330000D02*
X141925000Y-99629700D01*
X140888900Y-98593600D02*
X140888900Y-82550000D01*
X141925000Y-99629700D02*
X140888900Y-98593600D01*
X147320000Y-86995000D02*
X147320000Y-82550000D01*
X149690000Y-97358800D02*
X149690000Y-100330000D01*
X153149900Y-93898900D02*
X149690000Y-97358800D01*
X153670000Y-93898900D02*
X153149900Y-93898900D01*
X153670000Y-92710000D02*
X153670000Y-93898900D01*
X153149900Y-111841100D02*
X153670000Y-111841100D01*
X152319000Y-111010200D02*
X153149900Y-111841100D01*
X152319000Y-105226300D02*
X152319000Y-111010200D01*
X148764600Y-101671900D02*
X152319000Y-105226300D01*
X148764600Y-96915700D02*
X148764600Y-101671900D01*
X147733900Y-95885000D02*
X148764600Y-96915700D01*
X146889000Y-95885000D02*
X147733900Y-95885000D01*
X145955300Y-94951300D02*
X146889000Y-95885000D01*
X145955300Y-94058200D02*
X145955300Y-94951300D01*
X145147400Y-93250300D02*
X145955300Y-94058200D01*
X144780000Y-93250300D02*
X145147400Y-93250300D01*
X144780000Y-92075000D02*
X144780000Y-93250300D01*
X153670000Y-113030000D02*
X153670000Y-111841100D01*
D20*
G36*
X141386399Y-102342401D02*
X141632961Y-102507148D01*
X141923800Y-102565000D01*
X142290300Y-102565000D01*
X142290300Y-107552951D01*
X142098439Y-107676410D01*
X141953449Y-107888610D01*
X141902440Y-108140500D01*
X141902440Y-109141260D01*
X141946718Y-109376577D01*
X142085790Y-109592701D01*
X142297990Y-109737691D01*
X142549880Y-109788700D01*
X143550640Y-109788700D01*
X143785957Y-109744422D01*
X144002081Y-109605350D01*
X144147071Y-109393150D01*
X144198080Y-109141260D01*
X144198080Y-108140500D01*
X147901920Y-108140500D01*
X147901920Y-109141260D01*
X147946198Y-109376577D01*
X148085270Y-109592701D01*
X148297470Y-109737691D01*
X148549360Y-109788700D01*
X149550120Y-109788700D01*
X149785437Y-109744422D01*
X150001561Y-109605350D01*
X150146551Y-109393150D01*
X150197560Y-109141260D01*
X150197560Y-108140500D01*
X150153282Y-107905183D01*
X150014210Y-107689059D01*
X149802010Y-107544069D01*
X149550120Y-107493060D01*
X148549360Y-107493060D01*
X148314043Y-107537338D01*
X148097919Y-107676410D01*
X147952929Y-107888610D01*
X147901920Y-108140500D01*
X144198080Y-108140500D01*
X144153802Y-107905183D01*
X144014730Y-107689059D01*
X143810300Y-107549378D01*
X143810300Y-102119802D01*
X144362401Y-101567701D01*
X144447661Y-101440100D01*
X146214600Y-101440100D01*
X146505439Y-101382248D01*
X146576820Y-101334553D01*
X146638110Y-101376431D01*
X146890000Y-101427440D01*
X148004600Y-101427440D01*
X148004600Y-101671900D01*
X148062452Y-101962739D01*
X148227199Y-102209301D01*
X151559000Y-105541102D01*
X151559000Y-111010200D01*
X151616852Y-111301039D01*
X151781599Y-111547601D01*
X152336962Y-112102964D01*
X152100729Y-112456511D01*
X151986655Y-113030000D01*
X152100729Y-113603489D01*
X152108420Y-113615000D01*
X139991580Y-113615000D01*
X139999271Y-113603489D01*
X140113345Y-113030000D01*
X139999271Y-112456511D01*
X139674415Y-111970330D01*
X139477477Y-111838740D01*
X141902440Y-111838740D01*
X141902440Y-112839500D01*
X141946718Y-113074817D01*
X142085790Y-113290941D01*
X142297990Y-113435931D01*
X142549880Y-113486940D01*
X143550640Y-113486940D01*
X143785957Y-113442662D01*
X144002081Y-113303590D01*
X144147071Y-113091390D01*
X144198080Y-112839500D01*
X144198080Y-112624870D01*
X147914360Y-112624870D01*
X147914360Y-112965810D01*
X148011033Y-113199199D01*
X148189662Y-113377827D01*
X148423051Y-113474500D01*
X148763990Y-113474500D01*
X148922740Y-113315750D01*
X148922740Y-112466120D01*
X149176740Y-112466120D01*
X149176740Y-113315750D01*
X149335490Y-113474500D01*
X149676429Y-113474500D01*
X149909818Y-113377827D01*
X150088447Y-113199199D01*
X150185120Y-112965810D01*
X150185120Y-112624870D01*
X150026370Y-112466120D01*
X149176740Y-112466120D01*
X148922740Y-112466120D01*
X148073110Y-112466120D01*
X147914360Y-112624870D01*
X144198080Y-112624870D01*
X144198080Y-111838740D01*
X144174314Y-111712430D01*
X147914360Y-111712430D01*
X147914360Y-112053370D01*
X148073110Y-112212120D01*
X148922740Y-112212120D01*
X148922740Y-111362490D01*
X149176740Y-111362490D01*
X149176740Y-112212120D01*
X150026370Y-112212120D01*
X150185120Y-112053370D01*
X150185120Y-111712430D01*
X150088447Y-111479041D01*
X149909818Y-111300413D01*
X149676429Y-111203740D01*
X149335490Y-111203740D01*
X149176740Y-111362490D01*
X148922740Y-111362490D01*
X148763990Y-111203740D01*
X148423051Y-111203740D01*
X148189662Y-111300413D01*
X148011033Y-111479041D01*
X147914360Y-111712430D01*
X144174314Y-111712430D01*
X144153802Y-111603423D01*
X144014730Y-111387299D01*
X143802530Y-111242309D01*
X143550640Y-111191300D01*
X142549880Y-111191300D01*
X142314563Y-111235578D01*
X142098439Y-111374650D01*
X141953449Y-111586850D01*
X141902440Y-111838740D01*
X139477477Y-111838740D01*
X139359634Y-111760000D01*
X139674415Y-111549670D01*
X139999271Y-111063489D01*
X140113345Y-110490000D01*
X139999271Y-109916511D01*
X139674415Y-109430330D01*
X139359634Y-109220000D01*
X139674415Y-109009670D01*
X139999271Y-108523489D01*
X140113345Y-107950000D01*
X139999271Y-107376511D01*
X139674415Y-106890330D01*
X139359634Y-106680000D01*
X139674415Y-106469670D01*
X139999271Y-105983489D01*
X140113345Y-105410000D01*
X139999271Y-104836511D01*
X139674415Y-104350330D01*
X139359634Y-104140000D01*
X139674415Y-103929670D01*
X139999271Y-103443489D01*
X140113345Y-102870000D01*
X139999271Y-102296511D01*
X139674415Y-101810330D01*
X139359634Y-101600000D01*
X139674415Y-101389670D01*
X139978529Y-100934531D01*
X141386399Y-102342401D01*
X141386399Y-102342401D01*
G37*
X141386399Y-102342401D02*
X141632961Y-102507148D01*
X141923800Y-102565000D01*
X142290300Y-102565000D01*
X142290300Y-107552951D01*
X142098439Y-107676410D01*
X141953449Y-107888610D01*
X141902440Y-108140500D01*
X141902440Y-109141260D01*
X141946718Y-109376577D01*
X142085790Y-109592701D01*
X142297990Y-109737691D01*
X142549880Y-109788700D01*
X143550640Y-109788700D01*
X143785957Y-109744422D01*
X144002081Y-109605350D01*
X144147071Y-109393150D01*
X144198080Y-109141260D01*
X144198080Y-108140500D01*
X147901920Y-108140500D01*
X147901920Y-109141260D01*
X147946198Y-109376577D01*
X148085270Y-109592701D01*
X148297470Y-109737691D01*
X148549360Y-109788700D01*
X149550120Y-109788700D01*
X149785437Y-109744422D01*
X150001561Y-109605350D01*
X150146551Y-109393150D01*
X150197560Y-109141260D01*
X150197560Y-108140500D01*
X150153282Y-107905183D01*
X150014210Y-107689059D01*
X149802010Y-107544069D01*
X149550120Y-107493060D01*
X148549360Y-107493060D01*
X148314043Y-107537338D01*
X148097919Y-107676410D01*
X147952929Y-107888610D01*
X147901920Y-108140500D01*
X144198080Y-108140500D01*
X144153802Y-107905183D01*
X144014730Y-107689059D01*
X143810300Y-107549378D01*
X143810300Y-102119802D01*
X144362401Y-101567701D01*
X144447661Y-101440100D01*
X146214600Y-101440100D01*
X146505439Y-101382248D01*
X146576820Y-101334553D01*
X146638110Y-101376431D01*
X146890000Y-101427440D01*
X148004600Y-101427440D01*
X148004600Y-101671900D01*
X148062452Y-101962739D01*
X148227199Y-102209301D01*
X151559000Y-105541102D01*
X151559000Y-111010200D01*
X151616852Y-111301039D01*
X151781599Y-111547601D01*
X152336962Y-112102964D01*
X152100729Y-112456511D01*
X151986655Y-113030000D01*
X152100729Y-113603489D01*
X152108420Y-113615000D01*
X139991580Y-113615000D01*
X139999271Y-113603489D01*
X140113345Y-113030000D01*
X139999271Y-112456511D01*
X139674415Y-111970330D01*
X139477477Y-111838740D01*
X141902440Y-111838740D01*
X141902440Y-112839500D01*
X141946718Y-113074817D01*
X142085790Y-113290941D01*
X142297990Y-113435931D01*
X142549880Y-113486940D01*
X143550640Y-113486940D01*
X143785957Y-113442662D01*
X144002081Y-113303590D01*
X144147071Y-113091390D01*
X144198080Y-112839500D01*
X144198080Y-112624870D01*
X147914360Y-112624870D01*
X147914360Y-112965810D01*
X148011033Y-113199199D01*
X148189662Y-113377827D01*
X148423051Y-113474500D01*
X148763990Y-113474500D01*
X148922740Y-113315750D01*
X148922740Y-112466120D01*
X149176740Y-112466120D01*
X149176740Y-113315750D01*
X149335490Y-113474500D01*
X149676429Y-113474500D01*
X149909818Y-113377827D01*
X150088447Y-113199199D01*
X150185120Y-112965810D01*
X150185120Y-112624870D01*
X150026370Y-112466120D01*
X149176740Y-112466120D01*
X148922740Y-112466120D01*
X148073110Y-112466120D01*
X147914360Y-112624870D01*
X144198080Y-112624870D01*
X144198080Y-111838740D01*
X144174314Y-111712430D01*
X147914360Y-111712430D01*
X147914360Y-112053370D01*
X148073110Y-112212120D01*
X148922740Y-112212120D01*
X148922740Y-111362490D01*
X149176740Y-111362490D01*
X149176740Y-112212120D01*
X150026370Y-112212120D01*
X150185120Y-112053370D01*
X150185120Y-111712430D01*
X150088447Y-111479041D01*
X149909818Y-111300413D01*
X149676429Y-111203740D01*
X149335490Y-111203740D01*
X149176740Y-111362490D01*
X148922740Y-111362490D01*
X148763990Y-111203740D01*
X148423051Y-111203740D01*
X148189662Y-111300413D01*
X148011033Y-111479041D01*
X147914360Y-111712430D01*
X144174314Y-111712430D01*
X144153802Y-111603423D01*
X144014730Y-111387299D01*
X143802530Y-111242309D01*
X143550640Y-111191300D01*
X142549880Y-111191300D01*
X142314563Y-111235578D01*
X142098439Y-111374650D01*
X141953449Y-111586850D01*
X141902440Y-111838740D01*
X139477477Y-111838740D01*
X139359634Y-111760000D01*
X139674415Y-111549670D01*
X139999271Y-111063489D01*
X140113345Y-110490000D01*
X139999271Y-109916511D01*
X139674415Y-109430330D01*
X139359634Y-109220000D01*
X139674415Y-109009670D01*
X139999271Y-108523489D01*
X140113345Y-107950000D01*
X139999271Y-107376511D01*
X139674415Y-106890330D01*
X139359634Y-106680000D01*
X139674415Y-106469670D01*
X139999271Y-105983489D01*
X140113345Y-105410000D01*
X139999271Y-104836511D01*
X139674415Y-104350330D01*
X139359634Y-104140000D01*
X139674415Y-103929670D01*
X139999271Y-103443489D01*
X140113345Y-102870000D01*
X139999271Y-102296511D01*
X139674415Y-101810330D01*
X139359634Y-101600000D01*
X139674415Y-101389670D01*
X139978529Y-100934531D01*
X141386399Y-102342401D01*
G36*
X146260330Y-83794415D02*
X146560000Y-83994648D01*
X146560000Y-85731699D01*
X146240853Y-85944946D01*
X146240029Y-85946179D01*
X146233162Y-85909683D01*
X146094090Y-85693559D01*
X145881890Y-85548569D01*
X145630000Y-85497560D01*
X143930000Y-85497560D01*
X143694683Y-85541838D01*
X143478559Y-85680910D01*
X143333569Y-85893110D01*
X143282560Y-86145000D01*
X143282560Y-87845000D01*
X143326838Y-88080317D01*
X143465910Y-88296441D01*
X143678110Y-88441431D01*
X143745541Y-88455086D01*
X143700853Y-88484946D01*
X143378946Y-88966715D01*
X143265907Y-89535000D01*
X143378946Y-90103285D01*
X143700853Y-90585054D01*
X144030026Y-90805000D01*
X143700853Y-91024946D01*
X143378946Y-91506715D01*
X143265907Y-92075000D01*
X143378946Y-92643285D01*
X143700853Y-93125054D01*
X144030026Y-93345000D01*
X143700853Y-93564946D01*
X143378946Y-94046715D01*
X143265907Y-94615000D01*
X143378946Y-95183285D01*
X143700853Y-95665054D01*
X144030026Y-95885000D01*
X143700853Y-96104946D01*
X143378946Y-96586715D01*
X143265907Y-97155000D01*
X143378946Y-97723285D01*
X143700853Y-98205054D01*
X144182622Y-98526961D01*
X144750907Y-98640000D01*
X144809093Y-98640000D01*
X145377378Y-98526961D01*
X145859147Y-98205054D01*
X146048345Y-97921899D01*
X146048355Y-97921924D01*
X146438642Y-98350183D01*
X146963108Y-98596486D01*
X147193000Y-98475819D01*
X147193000Y-97282000D01*
X147173000Y-97282000D01*
X147173000Y-97028000D01*
X147193000Y-97028000D01*
X147193000Y-97008000D01*
X147447000Y-97008000D01*
X147447000Y-97028000D01*
X147467000Y-97028000D01*
X147467000Y-97282000D01*
X147447000Y-97282000D01*
X147447000Y-98475819D01*
X147676892Y-98596486D01*
X148004600Y-98442586D01*
X148004600Y-99232560D01*
X146890000Y-99232560D01*
X146654683Y-99276838D01*
X146438559Y-99415910D01*
X146296873Y-99623274D01*
X146273860Y-99627852D01*
X146027299Y-99792599D01*
X145899798Y-99920100D01*
X145065873Y-99920100D01*
X145028162Y-99719683D01*
X144889090Y-99503559D01*
X144676890Y-99358569D01*
X144425000Y-99307560D01*
X143225000Y-99307560D01*
X142989683Y-99351838D01*
X142875022Y-99425620D01*
X142776890Y-99358569D01*
X142618945Y-99326584D01*
X142462401Y-99092299D01*
X141648900Y-98278798D01*
X141648900Y-84107504D01*
X141666511Y-84119271D01*
X142240000Y-84233345D01*
X142813489Y-84119271D01*
X143299670Y-83794415D01*
X143510000Y-83479634D01*
X143720330Y-83794415D01*
X144206511Y-84119271D01*
X144780000Y-84233345D01*
X145353489Y-84119271D01*
X145839670Y-83794415D01*
X146050000Y-83479634D01*
X146260330Y-83794415D01*
X146260330Y-83794415D01*
G37*
X146260330Y-83794415D02*
X146560000Y-83994648D01*
X146560000Y-85731699D01*
X146240853Y-85944946D01*
X146240029Y-85946179D01*
X146233162Y-85909683D01*
X146094090Y-85693559D01*
X145881890Y-85548569D01*
X145630000Y-85497560D01*
X143930000Y-85497560D01*
X143694683Y-85541838D01*
X143478559Y-85680910D01*
X143333569Y-85893110D01*
X143282560Y-86145000D01*
X143282560Y-87845000D01*
X143326838Y-88080317D01*
X143465910Y-88296441D01*
X143678110Y-88441431D01*
X143745541Y-88455086D01*
X143700853Y-88484946D01*
X143378946Y-88966715D01*
X143265907Y-89535000D01*
X143378946Y-90103285D01*
X143700853Y-90585054D01*
X144030026Y-90805000D01*
X143700853Y-91024946D01*
X143378946Y-91506715D01*
X143265907Y-92075000D01*
X143378946Y-92643285D01*
X143700853Y-93125054D01*
X144030026Y-93345000D01*
X143700853Y-93564946D01*
X143378946Y-94046715D01*
X143265907Y-94615000D01*
X143378946Y-95183285D01*
X143700853Y-95665054D01*
X144030026Y-95885000D01*
X143700853Y-96104946D01*
X143378946Y-96586715D01*
X143265907Y-97155000D01*
X143378946Y-97723285D01*
X143700853Y-98205054D01*
X144182622Y-98526961D01*
X144750907Y-98640000D01*
X144809093Y-98640000D01*
X145377378Y-98526961D01*
X145859147Y-98205054D01*
X146048345Y-97921899D01*
X146048355Y-97921924D01*
X146438642Y-98350183D01*
X146963108Y-98596486D01*
X147193000Y-98475819D01*
X147193000Y-97282000D01*
X147173000Y-97282000D01*
X147173000Y-97028000D01*
X147193000Y-97028000D01*
X147193000Y-97008000D01*
X147447000Y-97008000D01*
X147447000Y-97028000D01*
X147467000Y-97028000D01*
X147467000Y-97282000D01*
X147447000Y-97282000D01*
X147447000Y-98475819D01*
X147676892Y-98596486D01*
X148004600Y-98442586D01*
X148004600Y-99232560D01*
X146890000Y-99232560D01*
X146654683Y-99276838D01*
X146438559Y-99415910D01*
X146296873Y-99623274D01*
X146273860Y-99627852D01*
X146027299Y-99792599D01*
X145899798Y-99920100D01*
X145065873Y-99920100D01*
X145028162Y-99719683D01*
X144889090Y-99503559D01*
X144676890Y-99358569D01*
X144425000Y-99307560D01*
X143225000Y-99307560D01*
X142989683Y-99351838D01*
X142875022Y-99425620D01*
X142776890Y-99358569D01*
X142618945Y-99326584D01*
X142462401Y-99092299D01*
X141648900Y-98278798D01*
X141648900Y-84107504D01*
X141666511Y-84119271D01*
X142240000Y-84233345D01*
X142813489Y-84119271D01*
X143299670Y-83794415D01*
X143510000Y-83479634D01*
X143720330Y-83794415D01*
X144206511Y-84119271D01*
X144780000Y-84233345D01*
X145353489Y-84119271D01*
X145839670Y-83794415D01*
X146050000Y-83479634D01*
X146260330Y-83794415D01*
G36*
X154255000Y-83671016D02*
X153854745Y-83591400D01*
X153578413Y-83591400D01*
X153691954Y-83464320D01*
X153885184Y-82911913D01*
X153740924Y-82677000D01*
X152527000Y-82677000D01*
X152527000Y-82697000D01*
X152273000Y-82697000D01*
X152273000Y-82677000D01*
X149987000Y-82677000D01*
X149987000Y-84036217D01*
X150219026Y-84157358D01*
X150234791Y-84154709D01*
X150762036Y-83900732D01*
X151130000Y-83488892D01*
X151497964Y-83900732D01*
X152025209Y-84154709D01*
X152040974Y-84157358D01*
X152272998Y-84036218D01*
X152272998Y-84201000D01*
X152311547Y-84201000D01*
X152100729Y-84516511D01*
X151986655Y-85090000D01*
X152100729Y-85663489D01*
X152425585Y-86149670D01*
X152735069Y-86356461D01*
X152319268Y-86727964D01*
X152065291Y-87255209D01*
X152062642Y-87270974D01*
X152183783Y-87503000D01*
X153543000Y-87503000D01*
X153543000Y-87483000D01*
X153797000Y-87483000D01*
X153797000Y-87503000D01*
X153817000Y-87503000D01*
X153817000Y-87757000D01*
X153797000Y-87757000D01*
X153797000Y-87777000D01*
X153543000Y-87777000D01*
X153543000Y-87757000D01*
X152183783Y-87757000D01*
X152062642Y-87989026D01*
X152065291Y-88004791D01*
X152319268Y-88532036D01*
X152735069Y-88903539D01*
X152425585Y-89110330D01*
X152100729Y-89596511D01*
X151986655Y-90170000D01*
X152100729Y-90743489D01*
X152425585Y-91229670D01*
X152740366Y-91440000D01*
X152425585Y-91650330D01*
X152100729Y-92136511D01*
X151986655Y-92710000D01*
X152100729Y-93283489D01*
X152336961Y-93637036D01*
X149419640Y-96554358D01*
X149302001Y-96378299D01*
X148455270Y-95531568D01*
X148591645Y-95381924D01*
X148761476Y-94971890D01*
X148640155Y-94742000D01*
X147447000Y-94742000D01*
X147447000Y-94762000D01*
X147193000Y-94762000D01*
X147193000Y-94742000D01*
X147173000Y-94742000D01*
X147173000Y-94488000D01*
X147193000Y-94488000D01*
X147193000Y-92202000D01*
X147447000Y-92202000D01*
X147447000Y-94488000D01*
X148640155Y-94488000D01*
X148761476Y-94258110D01*
X148591645Y-93848076D01*
X148201358Y-93419817D01*
X148042046Y-93345000D01*
X148201358Y-93270183D01*
X148591645Y-92841924D01*
X148761476Y-92431890D01*
X148640155Y-92202000D01*
X147447000Y-92202000D01*
X147193000Y-92202000D01*
X147173000Y-92202000D01*
X147173000Y-91948000D01*
X147193000Y-91948000D01*
X147193000Y-89662000D01*
X147447000Y-89662000D01*
X147447000Y-91948000D01*
X148640155Y-91948000D01*
X148761476Y-91718110D01*
X148591645Y-91308076D01*
X148201358Y-90879817D01*
X148042046Y-90805000D01*
X148201358Y-90730183D01*
X148591645Y-90301924D01*
X148761476Y-89891890D01*
X148640155Y-89662000D01*
X147447000Y-89662000D01*
X147193000Y-89662000D01*
X147173000Y-89662000D01*
X147173000Y-89408000D01*
X147193000Y-89408000D01*
X147193000Y-89388000D01*
X147447000Y-89388000D01*
X147447000Y-89408000D01*
X148640155Y-89408000D01*
X148761476Y-89178110D01*
X148591645Y-88768076D01*
X148201358Y-88339817D01*
X148058447Y-88272702D01*
X148399147Y-88045054D01*
X148721054Y-87563285D01*
X148834093Y-86995000D01*
X148721054Y-86426715D01*
X148399147Y-85944946D01*
X148080000Y-85731699D01*
X148080000Y-83994648D01*
X148379670Y-83794415D01*
X148586461Y-83484931D01*
X148957964Y-83900732D01*
X149485209Y-84154709D01*
X149500974Y-84157358D01*
X149733000Y-84036217D01*
X149733000Y-82677000D01*
X149713000Y-82677000D01*
X149713000Y-82423000D01*
X149733000Y-82423000D01*
X149733000Y-82403000D01*
X149987000Y-82403000D01*
X149987000Y-82423000D01*
X152273000Y-82423000D01*
X152273000Y-82403000D01*
X152527000Y-82403000D01*
X152527000Y-82423000D01*
X153740924Y-82423000D01*
X153885184Y-82188087D01*
X153807149Y-81965000D01*
X154255000Y-81965000D01*
X154255000Y-83671016D01*
X154255000Y-83671016D01*
G37*
X154255000Y-83671016D02*
X153854745Y-83591400D01*
X153578413Y-83591400D01*
X153691954Y-83464320D01*
X153885184Y-82911913D01*
X153740924Y-82677000D01*
X152527000Y-82677000D01*
X152527000Y-82697000D01*
X152273000Y-82697000D01*
X152273000Y-82677000D01*
X149987000Y-82677000D01*
X149987000Y-84036217D01*
X150219026Y-84157358D01*
X150234791Y-84154709D01*
X150762036Y-83900732D01*
X151130000Y-83488892D01*
X151497964Y-83900732D01*
X152025209Y-84154709D01*
X152040974Y-84157358D01*
X152272998Y-84036218D01*
X152272998Y-84201000D01*
X152311547Y-84201000D01*
X152100729Y-84516511D01*
X151986655Y-85090000D01*
X152100729Y-85663489D01*
X152425585Y-86149670D01*
X152735069Y-86356461D01*
X152319268Y-86727964D01*
X152065291Y-87255209D01*
X152062642Y-87270974D01*
X152183783Y-87503000D01*
X153543000Y-87503000D01*
X153543000Y-87483000D01*
X153797000Y-87483000D01*
X153797000Y-87503000D01*
X153817000Y-87503000D01*
X153817000Y-87757000D01*
X153797000Y-87757000D01*
X153797000Y-87777000D01*
X153543000Y-87777000D01*
X153543000Y-87757000D01*
X152183783Y-87757000D01*
X152062642Y-87989026D01*
X152065291Y-88004791D01*
X152319268Y-88532036D01*
X152735069Y-88903539D01*
X152425585Y-89110330D01*
X152100729Y-89596511D01*
X151986655Y-90170000D01*
X152100729Y-90743489D01*
X152425585Y-91229670D01*
X152740366Y-91440000D01*
X152425585Y-91650330D01*
X152100729Y-92136511D01*
X151986655Y-92710000D01*
X152100729Y-93283489D01*
X152336961Y-93637036D01*
X149419640Y-96554358D01*
X149302001Y-96378299D01*
X148455270Y-95531568D01*
X148591645Y-95381924D01*
X148761476Y-94971890D01*
X148640155Y-94742000D01*
X147447000Y-94742000D01*
X147447000Y-94762000D01*
X147193000Y-94762000D01*
X147193000Y-94742000D01*
X147173000Y-94742000D01*
X147173000Y-94488000D01*
X147193000Y-94488000D01*
X147193000Y-92202000D01*
X147447000Y-92202000D01*
X147447000Y-94488000D01*
X148640155Y-94488000D01*
X148761476Y-94258110D01*
X148591645Y-93848076D01*
X148201358Y-93419817D01*
X148042046Y-93345000D01*
X148201358Y-93270183D01*
X148591645Y-92841924D01*
X148761476Y-92431890D01*
X148640155Y-92202000D01*
X147447000Y-92202000D01*
X147193000Y-92202000D01*
X147173000Y-92202000D01*
X147173000Y-91948000D01*
X147193000Y-91948000D01*
X147193000Y-89662000D01*
X147447000Y-89662000D01*
X147447000Y-91948000D01*
X148640155Y-91948000D01*
X148761476Y-91718110D01*
X148591645Y-91308076D01*
X148201358Y-90879817D01*
X148042046Y-90805000D01*
X148201358Y-90730183D01*
X148591645Y-90301924D01*
X148761476Y-89891890D01*
X148640155Y-89662000D01*
X147447000Y-89662000D01*
X147193000Y-89662000D01*
X147173000Y-89662000D01*
X147173000Y-89408000D01*
X147193000Y-89408000D01*
X147193000Y-89388000D01*
X147447000Y-89388000D01*
X147447000Y-89408000D01*
X148640155Y-89408000D01*
X148761476Y-89178110D01*
X148591645Y-88768076D01*
X148201358Y-88339817D01*
X148058447Y-88272702D01*
X148399147Y-88045054D01*
X148721054Y-87563285D01*
X148834093Y-86995000D01*
X148721054Y-86426715D01*
X148399147Y-85944946D01*
X148080000Y-85731699D01*
X148080000Y-83994648D01*
X148379670Y-83794415D01*
X148586461Y-83484931D01*
X148957964Y-83900732D01*
X149485209Y-84154709D01*
X149500974Y-84157358D01*
X149733000Y-84036217D01*
X149733000Y-82677000D01*
X149713000Y-82677000D01*
X149713000Y-82423000D01*
X149733000Y-82423000D01*
X149733000Y-82403000D01*
X149987000Y-82403000D01*
X149987000Y-82423000D01*
X152273000Y-82423000D01*
X152273000Y-82403000D01*
X152527000Y-82403000D01*
X152527000Y-82423000D01*
X153740924Y-82423000D01*
X153885184Y-82188087D01*
X153807149Y-81965000D01*
X154255000Y-81965000D01*
X154255000Y-83671016D01*
G36*
X138557000Y-92583000D02*
X138577000Y-92583000D01*
X138577000Y-92837000D01*
X138557000Y-92837000D01*
X138557000Y-92857000D01*
X138303000Y-92857000D01*
X138303000Y-92837000D01*
X138283000Y-92837000D01*
X138283000Y-92583000D01*
X138303000Y-92583000D01*
X138303000Y-92563000D01*
X138557000Y-92563000D01*
X138557000Y-92583000D01*
X138557000Y-92583000D01*
G37*
X138557000Y-92583000D02*
X138577000Y-92583000D01*
X138577000Y-92837000D01*
X138557000Y-92837000D01*
X138557000Y-92857000D01*
X138303000Y-92857000D01*
X138303000Y-92837000D01*
X138283000Y-92837000D01*
X138283000Y-92583000D01*
X138303000Y-92583000D01*
X138303000Y-92563000D01*
X138557000Y-92563000D01*
X138557000Y-92583000D01*
M02*
