M48
INCH,TZ
T1C0.016
T2C0.039
T3C0.040
%
G90
G05
T1
X56000Y-36500
X59083Y-44304
T2
X57000Y-34250
X57000Y-35250
X57000Y-36250
X57000Y-37250
X57000Y-38250
X58000Y-34250
X58000Y-35250
X58000Y-36250
X58000Y-37250
X58000Y-38250
T3
X54500Y-33500
X54500Y-34500
X54500Y-35500
X54500Y-36500
X54500Y-37500
X54500Y-38500
X54500Y-39500
X54500Y-40500
X54500Y-41500
X54500Y-42500
X54500Y-43500
X54500Y-44500
X55000Y-32500
X56000Y-32500
X57000Y-32500
X58000Y-32500
X59000Y-32500
X60000Y-32500
X60500Y-33500
X60500Y-34500
X60500Y-35500
X60500Y-36500
X60500Y-37500
X60500Y-38500
X60500Y-39500
X60500Y-40500
X60500Y-41500
X60500Y-42500
X60500Y-43500
X60500Y-44500
T0
M30
